Chi-Square Examples
…
H0: the number of births does not vary by day of the week. Ha: the number of births does vary by day of the week.

Data

Use the data from the Births dataset from the mosaicData package: https://vincentarelbundock.github.io/Rdatasets/doc/mosaicData/Births.html

# load the mosaicData package
library(mosaicData)

# put the dataset in the global environment as a tibble and rename it to lowercase
births <- as_tibble(Births)
births

# A tibble: 7,305 x 8
   date       births wday   year month day_of_year day_of_month day_of_week
   <date>      <int> <ord> <int> <int>       <int>        <int>       <int>
 1 1969-01-01   8486 Wed    1969     1           1            1           3
 2 1969-01-02   9002 Thu    1969     1           2            2           4
 3 1969-01-03   9542 Fri    1969     1           3            3           5
 4 1969-01-04   8960 Sat    1969     1           4            4           6
 5 1969-01-05   8390 Sun    1969     1           5            5           7
 6 1969-01-06   9560 Mon    1969     1           6            6           1
 7 1969-01-07   9738 Tue    1969     1           7            7           2
 8 1969-01-08   9734 Wed    1969     1           8            8           3
 9 1969-01-09   9434 Thu    1969     1           9            9           4
10 1969-01-10  10042 Fri    1969     1          10           10           5
# ... with 7,295 more rows
…
