6 Comparing means | Quantitative Biology BIOL 275 at MSUM
…
There certainly appears to be some difference between males and females, at least for some morphological characteristics and species.

6.4.2 Adélie bill depth

Let’s dig in an look more closely at one variable and one species: Adélie Penguins and bill depth.

adelie_bill_depth <-
  penguins %>% 
  filter(species == "Adelie") %>% 
  select(sex, bill_depth_mm) %>% 
  filter(complete.cases(.)) %>% 
  print()

#> # A tibble: 146 × 2
#>   sex    bill_depth_mm
#>   <fct>          <dbl>
#> 1 male            18.7
#> 2 female          17.4
#> 3 female          18  
#> 4 female          19.3
#> 5 male            20.6
#> 6 female          17.8
#> # … with 140 more rows
…
