3 Introduction to ggplot2 | Quantitative Biology BIOL 275 at MSUM
…
The message you get in your console tells you how the data in the CSV was parsed (interpretted) when it was read into R. You can ignore it for now.

3.5.3 View the tiger data

You will notice that the data itself did not appear in the console. That’s because we assigned it to an object but did not print it. To print the data in the console, type the name of the object into your R script and run it:

tiger_data                  # print the data in the console
#> # A tibble: 88 x 2
#>   person activity             
#>    <dbl> <chr>                
#> 1      1 Disturbing tiger kill
#> 2      2 Forest products      
#> 3      3 Grass/fodder         
#> 4      4 Fuelwood/timber      
#> 5      5 Grass/fodder         
#> 6      6 Forest products      
#> # … with 82 more rows
…
3.5.4 Contingency table

If you want to see how many times each value of activity occurs in the data, you can create a contingency table using the count() function. Again, the data object is the first argument and the variable name is the second argument.

count(tiger_data, activity)
#> # A tibble: 9 x 2
#>   activity                  n
#> * <chr>                 <int>
#> 1 Disturbing tiger kill     5
#> 2 Fishing                   8
#> 3 Forest products          11
#> 4 Fuelwood/timber           5
#> 5 Grass/fodder             44
#> 6 Herding                   7
#> # … with 3 more rows
…
3.6.2 Read and view the bird data

Create a new code section in your script named “bird abundances” and read the data from the textbook website:

bird_data <- read_csv("https://whitlockschluter.zoology.ubc.ca/wp-content/data/chapter02/chap02e2bDesertBirdAbundance.csv")
#> 
#> ── Column specification ────────────────────────────────────────────────────────
#> cols(
#>   species = col_character(),
#>   abundance = col_double()
#> )

bird_data                  # print the data in the console
#> # A tibble: 43 x 2
#>   species          abundance
#>   <chr>                <dbl>
#> 1 Black Vulture           64
#> 2 Turkey Vulture          23
#> 3 Harris's Hawk            3
#> 4 Red-tailed Hawk         16
#> 5 American Kestrel         7
#> 6 Gambel's Quail         148
#> # … with 37 more rows
…
