3 Lab 3: Data subsetting | Quantitative Biology BIOL 275 at MSUM
…
library(tidyverse)

3.3.2 diamonds

You will explore basic dplyr functions using the diamonds data frame, found in the ggplot package.

This data frame contains data on almost 54,000 diamonds, including price and other attributes.

First, take a look at diamonds by printing it in the console:

# print diamonds in the console
diamonds

#> # A tibble: 53,940 × 10
#>   carat cut       color clarity depth table price     x     y     z
#>   <dbl> <ord>     <ord> <ord>   <dbl> <dbl> <int> <dbl> <dbl> <dbl>
#> 1  0.23 Ideal     E     SI2      61.5    55   326  3.95  3.98  2.43
#> 2  0.21 Premium   E     SI1      59.8    61   326  3.89  3.84  2.31
#> 3  0.23 Good      E     VS1      56.9    65   327  4.05  4.07  2.31
#> 4  0.29 Premium   I     VS2      62.4    58   334  4.2   4.23  2.63
#> 5  0.31 Good      J     SI2      63.3    58   335  4.34  4.35  2.75
#> 6  0.24 Very Good J     VVS2     62.8    57   336  3.94  3.96  2.48
#> # … with 53,934 more rows
…
You can read more about data types in the Column data types vignette in the tibble package.

3.4 Filter rows with filter()

The filter() function allows you to take a table and pick rows to keep based on their values. The first argument is the name of the data frame. The other arguments are expressions that decide which rows to keep.

For example, to take the diamonds data frame and pick only diamonds with a weight of 2 or more carats, you could write:

filter(diamonds, carat > 2)

#> # A tibble: 1,889 × 10
#>   carat cut     color clarity depth table price     x     y     z
#>   <dbl> <ord>   <ord> <ord>   <dbl> <dbl> <int> <dbl> <dbl> <dbl>
#> 1  2.06 Premium J     I1       61.2    58  5203  8.1   8.07  4.95
#> 2  2.14 Fair    J     I1       69.4    57  5405  7.74  7.7   5.36
#> 3  2.15 Fair    J     I1       65.5    57  5430  8.01  7.95  5.23
#> 4  2.22 Fair    J     I1       66.7    56  5607  8.04  8.02  5.36
#> 5  2.01 Fair    I     I1       67.4    58  5696  7.71  7.64  5.17
#> 6  2.01 Fair    I     I1       55.9    64  5696  8.48  8.39  4.71
#> # … with 1,883 more rows

3.4.1 Intermediate objects

When you run code to filter a data frame, R returns a new data frame.

If you want to use that new data frame for some further operation, you would need to save the result by assigning it a new name using the assignment operator <-

big_diamonds <- filter(diamonds, carat > 2)

When you run this line of code, note that there is no output in the console. R generally does not produce any output when you use the assignment operator. If you want the new object to be printed in the console, you have to print it by running the name of the new object:

big_diamonds

#> # A tibble: 1,889 × 10
#>   carat cut     color clarity depth table price     x     y     z
#>   <dbl> <ord>   <ord> <ord>   <dbl> <dbl> <int> <dbl> <dbl> <dbl>
#> 1  2.06 Premium J     I1       61.2    58  5203  8.1   8.07  4.95
#> 2  2.14 Fair    J     I1       69.4    57  5405  7.74  7.7   5.36
#> 3  2.15 Fair    J     I1       65.5    57  5430  8.01  7.95  5.23
#> 4  2.22 Fair    J     I1       66.7    56  5607  8.04  8.02  5.36
#> 5  2.01 Fair    I     I1       67.4    58  5696  7.71  7.64  5.17
#> 6  2.01 Fair    I     I1       55.9    64  5696  8.48  8.39  4.71
#> # … with 1,883 more rows

Now, if you want to filter the big_diamonds object further, you can use it as the data object for another filter() function:

filter(big_diamonds, price > 15000)

#> # A tibble: 1,037 × 10
#>   carat cut       color clarity depth table price     x     y     z
#>   <dbl> <ord>     <ord> <ord>   <dbl> <dbl> <int> <dbl> <dbl> <dbl>
#> 1  2.1  Premium   I     SI1      61.5    57 15007  8.25  8.21  5.06
#> 2  2.02 Premium   G     SI2      63      59 15014  8.05  7.95  5.03
#> 3  2.05 Very Good F     SI2      61.9    56 15017  8.13  8.18  5.05
#> 4  2.48 Fair      I     SI2      56.7    66 15030  8.88  8.64  4.99
#> 5  2.8  Premium   I     SI2      61.1    59 15030  9.03  8.98  5.5 
#> 6  2.19 Premium   I     SI2      60.8    60 15032  8.34  8.38  5.08
#> # … with 1,031 more rows

3.4.2 Basic Operators

The > symbol is known as an “operator”. These are special characters you use to compare things in R. Some of the basic operators include >, >=, <, <=, == (equals), and != (not equals).

Note that the greater and less than operators can only be used on numerical and ordinal categorical variables, while == and != can be used with any type of variable.

There is one major difference between comparisons of numeric (integer and double) variables and character, factor, or ordered factor variables, and that is the use of the double quotes ".

Here is an example of using the == operator with the cut variable, an ordered factor data type:

filter(diamonds, cut == "Ideal")

#> # A tibble: 21,551 × 10
#>   carat cut   color clarity depth table price     x     y     z
#>   <dbl> <ord> <ord> <ord>   <dbl> <dbl> <int> <dbl> <dbl> <dbl>
#> 1  0.23 Ideal E     SI2      61.5    55   326  3.95  3.98  2.43
#> 2  0.23 Ideal J     VS1      62.8    56   340  3.93  3.9   2.46
#> 3  0.31 Ideal J     SI2      62.2    54   344  4.35  4.37  2.71
#> 4  0.3  Ideal I     SI2      62      54   348  4.31  4.34  2.68
#> 5  0.33 Ideal I     SI2      61.8    55   403  4.49  4.51  2.78
#> 6  0.33 Ideal I     SI2      61.2    56   403  4.49  4.5   2.75
#> # … with 21,545 more rows
…
3.4.3.1 And operator

If you put three or more arguments in your filter() function (the data argument plus two or more criteria arguments), then only rows meeting ALL criteria are kept, so it performs an “and” operation. Thus these two lines of code will return identical results:

filter(diamonds, carat > 2, price < 6000)
filter(diamonds, carat > 2 & price < 6000)

3.4.3.2 Or operator

For “or” comparisons, you have to use the vertical bar | operator. For example, this code will return a table with diamonds having a color of D or E.

filter(diamonds, color == "D" | color == "E")

#> # A tibble: 16,572 × 10
#>   carat cut     color clarity depth table price     x     y     z
#>   <dbl> <ord>   <ord> <ord>   <dbl> <dbl> <int> <dbl> <dbl> <dbl>
#> 1  0.23 Ideal   E     SI2      61.5    55   326  3.95  3.98  2.43
#> 2  0.21 Premium E     SI1      59.8    61   326  3.89  3.84  2.31
#> 3  0.23 Good    E     VS1      56.9    65   327  4.05  4.07  2.31
#> 4  0.22 Fair    E     VS2      65.1    61   337  3.87  3.78  2.49
#> 5  0.2  Premium E     SI2      60.2    62   345  3.79  3.75  2.27
#> 6  0.32 Premium E     I1       60.9    58   345  4.38  4.42  2.68
#> # … with 16,566 more rows
…
Missing values are a story for a later date! You don’t need to know this yet, but if you find yourself here looking for an answer, you can filter values without a “missing value” for color like this:

filter(diamonds, !is.na(color))

The diamonds dataset does not contain any missing values, so the results here are uninteresting, but at least now you know how.

3.4.4 String helper functions

There are a variety of other functions you can incorporate into your filter() function to achieve specific results.

For example, if you are dealing with a text column (e.g. character, factor, or ordered), you may wish to filter based on something more precise than simply == or !=. Let’s say you want to find all diamonds with a clarity of VS1, VS2, VVS1, or VVS2. You could use the “or” operator, or the “in” operator. But what if you don’t even know all the possible clarity values and you just want everything that contains "VS" anywhere in the word. There is a string-based helper function str_detect() which looks for a particular string of text inside a text variable:

filter(diamonds, str_detect(clarity, "VS"))

#> # A tibble: 29,150 × 10
#>   carat cut       color clarity depth table price     x     y     z
#>   <dbl> <ord>     <ord> <ord>   <dbl> <dbl> <int> <dbl> <dbl> <dbl>
#> 1  0.23 Good      E     VS1      56.9    65   327  4.05  4.07  2.31
#> 2  0.29 Premium   I     VS2      62.4    58   334  4.2   4.23  2.63
#> 3  0.24 Very Good J     VVS2     62.8    57   336  3.94  3.96  2.48
#> 4  0.24 Very Good I     VVS1     62.3    57   336  3.95  3.98  2.47
#> 5  0.22 Fair      E     VS2      65.1    61   337  3.87  3.78  2.49
#> 6  0.23 Very Good H     VS1      59.4    61   338  4     4.05  2.39
#> # … with 29,144 more rows
…
filter(diamonds, str_starts(clarity, "VS"))
filter(diamonds, str_ends(clarity, "2"))

3.5 Arrange rows with arrange()

The arrange() function will allow you to sort the rows in a data frame based on the values in one or more columns. It always returns a data frame with the same number of rows as the input data frame.

The first argument is the data frame to sort. Subsequent arguments are the names of columns by which to sort.

For example, to sort the diamonds data frame by cut:

arrange(diamonds, cut)

#> # A tibble: 53,940 × 10
#>   carat cut   color clarity depth table price     x     y     z
#>   <dbl> <ord> <ord> <ord>   <dbl> <dbl> <int> <dbl> <dbl> <dbl>
#> 1  0.22 Fair  E     VS2      65.1    61   337  3.87  3.78  2.49
#> 2  0.86 Fair  E     SI2      55.1    69  2757  6.45  6.33  3.52
#> 3  0.96 Fair  F     SI2      66.3    62  2759  6.27  5.95  4.07
#> 4  0.7  Fair  F     VS2      64.5    57  2762  5.57  5.53  3.58
#> 5  0.7  Fair  F     VS2      65.3    55  2762  5.63  5.58  3.66
#> 6  0.91 Fair  H     SI2      64.4    57  2763  6.11  6.09  3.93
#> # … with 53,934 more rows

You can see that even within Fair cut diamonds, there is still considerable variation in price. If you want to further sort within each cut, you can add additional arguments:

arrange(diamonds, cut, price)

#> # A tibble: 53,940 × 10
#>   carat cut   color clarity depth table price     x     y     z
#>   <dbl> <ord> <ord> <ord>   <dbl> <dbl> <int> <dbl> <dbl> <dbl>
#> 1  0.22 Fair  E     VS2      65.1    61   337  3.87  3.78  2.49
#> 2  0.25 Fair  E     VS1      55.2    64   361  4.21  4.23  2.33
#> 3  0.23 Fair  G     VVS2     61.4    66   369  3.87  3.91  2.39
#> 4  0.27 Fair  E     VS1      66.4    58   371  3.99  4.02  2.66
#> 5  0.3  Fair  J     VS2      64.8    58   416  4.24  4.16  2.72
#> 6  0.3  Fair  F     SI1      63.1    58   496  4.3   4.22  2.69
#> # … with 53,934 more rows

If you sort a character (text) variable, it will sort alphabetically. If you sort a factor or ordered variable, it will sort based on the order of the factors levels, which you can see using levels() . For example levels(diamonds$cut) .

3.5.1 Descending order

To sort a variable in descending rather than ascending order, you can wrap the variable name in the desc() function. For example, to sort so that the worst cut diamonds are at the top of the data frame, and within those the highest priced diamonds are at the top, you could use:

arrange(diamonds, cut, desc(price))

#> # A tibble: 53,940 × 10
#>   carat cut   color clarity depth table price     x     y     z
#>   <dbl> <ord> <ord> <ord>   <dbl> <dbl> <int> <dbl> <dbl> <dbl>
#> 1  2.01 Fair  G     SI1      70.6    64 18574  7.43  6.64  4.69
#> 2  2.02 Fair  H     VS2      64.5    57 18565  8     7.95  5.14
#> 3  4.5  Fair  J     I1       65.8    58 18531 10.2  10.2   6.72
#> 4  2    Fair  G     VS2      67.6    58 18515  7.65  7.61  5.16
#> 5  2.51 Fair  H     SI2      64.7    57 18308  8.44  8.5   5.48
#> 6  3.01 Fair  I     SI2      65.8    56 18242  8.99  8.94  5.9 
#> # … with 53,934 more rows

Why do some Fair cut diamonds cost so much? Probably because they are huge! The first 6 diamonds in that list are all at least 2 carats in weight.

3.6 Select columns with select()

The select() function allows you to select which columns (i.e. variables) to keep, or conversely which ones to remove. The function returns a new data frame with the same number of rows as the input data frame, but with fewer columns as specified by the arguments.

The first argument is the name of the data frame. The subsequent arguments are the names of the variables you want to keep.

For example, say you wanted to focus on the variables carat, cut, and color, you could use:

select(diamonds, carat, cut, color)

#> # A tibble: 53,940 × 3
#>   carat cut       color
#>   <dbl> <ord>     <ord>
#> 1  0.23 Ideal     E    
#> 2  0.21 Premium   E    
#> 3  0.23 Good      E    
#> 4  0.29 Premium   I    
#> 5  0.31 Good      J    
#> 6  0.24 Very Good J    
#> # … with 53,934 more rows

Technically, you can also select variables by their position, so select(diamonds, carat, cut, color) is equivalent to select(diamonds, 1, 2, 3)

select() can also be used to rearrange the order of columns:

select(diamonds, color, cut, carat)

#> # A tibble: 53,940 × 3
#>   color cut       carat
#>   <ord> <ord>     <dbl>
#> 1 E     Ideal      0.23
#> 2 E     Premium    0.21
#> 3 E     Good       0.23
#> 4 I     Premium    0.29
#> 5 J     Good       0.31
#> 6 J     Very Good  0.24
#> # … with 53,934 more rows

There is also a shorthand for selecting many variables that appear consecutively in the data frame using the colon : operator. For example, to select every variable from carat to price (which would include carat, cut, color, clarity, depth, table, and price), you could do:

select(diamonds, carat:price)

#> # A tibble: 53,940 × 7
#>   carat cut       color clarity depth table price
#>   <dbl> <ord>     <ord> <ord>   <dbl> <dbl> <int>
#> 1  0.23 Ideal     E     SI2      61.5    55   326
#> 2  0.21 Premium   E     SI1      59.8    61   326
#> 3  0.23 Good      E     VS1      56.9    65   327
#> 4  0.29 Premium   I     VS2      62.4    58   334
#> 5  0.31 Good      J     SI2      63.3    58   335
#> 6  0.24 Very Good J     VVS2     62.8    57   336
#> # … with 53,934 more rows

3.6.1 Removing variables

Sometimes its easier to say which variables you don’t want to keep rather than which ones you do. In those scenarios you can put a hyphen (negative symbol) directly before a variable name. The resulting data frame has all the variables except the one you named. For example, to return every row except table, you could do:

select(diamonds, -table)

#> # A tibble: 53,940 × 9
#>   carat cut       color clarity depth price     x     y     z
#>   <dbl> <ord>     <ord> <ord>   <dbl> <int> <dbl> <dbl> <dbl>
#> 1  0.23 Ideal     E     SI2      61.5   326  3.95  3.98  2.43
#> 2  0.21 Premium   E     SI1      59.8   326  3.89  3.84  2.31
#> 3  0.23 Good      E     VS1      56.9   327  4.05  4.07  2.31
#> 4  0.29 Premium   I     VS2      62.4   334  4.2   4.23  2.63
#> 5  0.31 Good      J     SI2      63.3   335  4.34  4.35  2.75
#> 6  0.24 Very Good J     VVS2     62.8   336  3.94  3.96  2.48
#> # … with 53,934 more rows
…
There are several functions that can be used within select() :

starts_with("abc") finds all columns whose name starts with “abc”

ends_with("abc") finds all columns whose name ends with “abc”

contains("abc") finds all columns whose name contains “abc”

everything() finds all columns that have not already been explicitly added or dropped. This is useful if there are a few variables you want to move to the front (left) of the data frame.

For example, the following code would move table and price to the front and leave everything else at the end:

select(diamonds, ends_with("e"), everything())

#> # A tibble: 53,940 × 10
#>   table price carat cut       color clarity depth     x     y     z
#>   <dbl> <int> <dbl> <ord>     <ord> <ord>   <dbl> <dbl> <dbl> <dbl>
#> 1    55   326  0.23 Ideal     E     SI2      61.5  3.95  3.98  2.43
#> 2    61   326  0.21 Premium   E     SI1      59.8  3.89  3.84  2.31
#> 3    65   327  0.23 Good      E     VS1      56.9  4.05  4.07  2.31
#> 4    58   334  0.29 Premium   I     VS2      62.4  4.2   4.23  2.63
#> 5    58   335  0.31 Good      J     SI2      63.3  4.34  4.35  2.75
#> 6    57   336  0.24 Very Good J     VVS2     62.8  3.94  3.96  2.48
#> # … with 53,934 more rows
…
