5 Lab 5: Frequency data | Quantitative Biology BIOL 275 at MSUM
…
First read the data using read_csv() from the readr package (as opposed to the base function read.csv()):

birth_data <- read_csv("http://whitlockschluter.zoology.ubc.ca/wp-content/data/chapter08/chap08e1DayOfBirth.csv")

#> Rows: 350 Columns: 1
#> ── Column specification ────────────────────────────────────────────────────────
#> Delimiter: ","
#> chr (1): day
#> 
#> ℹ Use `spec()` to retrieve the full column specification for this data.
#> ℹ Specify the column types or set `show_col_types = FALSE` to quiet this message.

birth_data

#> # A tibble: 350 × 1
#>   day   
#>   <chr> 
#> 1 Sunday
#> 2 Sunday
#> 3 Sunday
#> 4 Sunday
#> 5 Sunday
#> 6 Sunday
#> # … with 344 more rows
…
#> [1] "Monday"    "Tuesday"   "Wednesday" "Thursday"  "Friday"    "Saturday" 
#> [7] "Sunday"

Then we can use mutate() to create a new variable using factor(), and use a little tidyverse magic from the forcats and stringr packages to shorten the day names for easier viewing. Let’s call the new variable day_fct and day_short.

birth_data <- 
  mutate(
    birth_data, 
    day_fct = factor(day, levels = days_of_week),
    day_short = fct_relabel(day_fct, str_sub, start = 1, end = 3)
  )
birth_data

#> # A tibble: 350 × 3
#>   day    day_fct day_short
#>   <chr>  <fct>   <fct>    
#> 1 Sunday Sunday  Sun      
#> 2 Sunday Sunday  Sun      
#> 3 Sunday Sunday  Sun      
#> 4 Sunday Sunday  Sun      
#> 5 Sunday Sunday  Sun      
#> 6 Sunday Sunday  Sun      
#> # … with 344 more rows
…
5.3.5 Create a frequency table

The other common method of visualizing frequency data for a categorical variable is with a frequency table. This is quite easy with the count() function in the dplyr package.

birth_freq_table <- count(birth_data, day_fct)
birth_freq_table

#> # A tibble: 7 × 2
#>   day_fct       n
#>   <fct>     <int>
#> 1 Monday       41
#> 2 Tuesday      63
#> 3 Wednesday    63
#> 4 Thursday     47
#> 5 Friday       56
#> 6 Saturday     47
#> # … with 1 more row
…
5.4.7 \(\chi^2\) goodness-of-fit test

We have everything we need to conduct a \(\chi^2\) goodness-of-fit test in our frequency table, namely the observed and expected frequencies for each number of extinctions. The problem is that some categories have frequencies less than 1, and there are too many categories with frequencies less than 5.

To resolve this, we can combine some categories. Before we can do that, we need to convert n_extinct to a factor data type. Let’s create a new tibble to hold this frequency table of combined categories.

combined_freq_table <-
  extinct_freq_table %>% 
  select(-expected_prop) %>% 
  mutate(n_extinct = factor(n_extinct)) %>% 
  print()

#> # A tibble: 21 × 3
#>   n_extinct observed_freq expected_freq
#>   <fct>             <int>         <dbl>
#> 1 0                     0          1.13
#> 2 1                    13          4.75
#> 3 2                    15         10.0 
#> 4 3                    16         14.0 
#> 5 4                     7         14.8 
#> 6 5                    10         12.4 
#> # … with 15 more rows
…
  mutate(n_extinct = fct_collapse(
    n_extinct,
    `0 or 1` = "0",
    `0 or 1` = "1",
    `2` = "2",
    `3` = "3",
    `4` = "4",
    `5` = "5",
    `6` = "6",
    `7` = "7",
    other_level = "8 or more",
  )) %>% 
  print()

#> # A tibble: 21 × 3
#>   n_extinct observed_freq expected_freq
#>   <fct>             <int>         <dbl>
#> 1 0 or 1                0          1.13
#> 2 0 or 1               13          4.75
#> 3 2                    15         10.0 
#> 4 3                    16         14.0 
#> 5 4                     7         14.8 
#> 6 5                    10         12.4 
#> # … with 15 more rows
…
#> [1] 3.516995e-07

That’s because we did not calculate probabilities for categories larger than 20 extinctions. Those probabilities are small, but we still want to include them. So let’s add a new row that includes those:

combined_freq_table %>% 
  add_row(
    n_extinct = factor("8 or more"),
    observed_freq = 0,
    expected_freq = missing_probabilities,
    .before = 1
  )

#> # A tibble: 22 × 3
#>   n_extinct observed_freq expected_freq
#>   <fct>             <dbl>         <dbl>
#> 1 8 or more             0   0.000000352
#> 2 0 or 1                0   1.13       
#> 3 0 or 1               13   4.75       
#> 4 2                    15  10.0        
#> 5 3                    16  14.0        
#> 6 4                     7  14.8        
#> # … with 16 more rows

Now we can use summarize() to add up the observed and expected frequencies for our newly combined categories. Before we do, however, there is an issue we must solve.

combined_freq_table <-
  combined_freq_table %>% 
  group_by(n_extinct) %>% 
  summarize(
    observed_freq = sum(observed_freq),
    expected_freq = sum(expected_freq)
  ) %>% 
  print()

#> # A tibble: 8 × 3
#>   n_extinct observed_freq expected_freq
#>   <fct>             <int>         <dbl>
#> 1 0 or 1               13          5.88
#> 2 2                    15         10.0 
#> 3 3                    16         14.0 
#> 4 4                     7         14.8 
#> 5 5                    10         12.4 
#> 6 6                     4          8.73
#> # … with 2 more rows
…
