7 Lab 7: Data summarizing | BIOL 275 Biostatistics at MSUM
…
    # make the statistic names readable
    statistic = recode(
      statistic,
      median_price = "Median",
      mean_price = "Mean",
    ),
    # ensure order in legend
    statistic = factor(   
      statistic, 
      levels = c("Median", "Mean")
    )
  ) |> 
  print()

#> # A tibble: 10 × 3
#>   cut       statistic value
#>   <ord>     <fct>     <dbl>
#> 1 Fair      Mean      4359.
#> 2 Fair      Median    3282 
#> 3 Good      Mean      3929.
#> 4 Good      Median    3050.
#> 5 Very Good Mean      3982.
#> 6 Very Good Median    2648 
#> # ℹ 4 more rows
…
