…
```
#> # A tibble: 10 × 3
#>   cut       statistic value
#>   <ord>     <fct>     <dbl>
#> 1 Fair      Mean      4359.
#> 2 Fair      Median    3282 
#> 3 Good      Mean      3929.
#> 4 Good      Median    3050.
#> 5 Very Good Mean      3982.
#> 6 Very Good Median    2648 
#> # ℹ 4 more rows
```
…
