…
You can read more about the `diamonds` dataset in the previous lab, [Data subsetting](data-subsetting.html).

## Rename variables with `rename()`

The `rename()` function allows you to rename variables in a data frame. The first argument to `rename()` is the data frame. The other arguments specify which variables to rename, with the format `new_name = old_name`.

For example, say you want to rename the `x`, `y`, and `z` variables to `length`, `width`, and `height`:


```r
rename(diamonds, length = x, width = y, height = z)
```

```
#> # A tibble: 53,940 x 10
#>   carat cut       color clarity depth table price length width height
#>   <dbl> <ord>     <ord> <ord>   <dbl> <dbl> <int>  <dbl> <dbl>  <dbl>
#> 1 0.23  Ideal     E     SI2      61.5    55   326   3.95  3.98   2.43
#> 2 0.21  Premium   E     SI1      59.8    61   326   3.89  3.84   2.31
#> 3 0.23  Good      E     VS1      56.9    65   327   4.05  4.07   2.31
#> 4 0.290 Premium   I     VS2      62.4    58   334   4.2   4.23   2.63
#> 5 0.31  Good      J     SI2      63.3    58   335   4.34  4.35   2.75
#> 6 0.24  Very Good J     VVS2     62.8    57   336   3.94  3.96   2.48
#> # … with 53,934 more rows
```
…
## Create new variables with `mutate()` 

The `mutate()` function allows you to create a new variable in a data frame. As with other dplyr functions, the first argument to `mutate()` is the data frame. Additional arguments are name-value pairs. The name gives the name of the column in the output. The value is often a mathematical expression (in the case of numerical variables), a function, or some combination thereof.

To make viewing the new variables easier, first select a subset of variables from the `diamonds` data set using `select()` and give the new data frame the name `d2`:


```r
d2 <- select(diamonds, carat, price)
d2
```

```
#> # A tibble: 53,940 x 2
#>   carat price
#>   <dbl> <int>
#> 1 0.23    326
#> 2 0.21    326
#> 3 0.23    327
#> 4 0.290   334
#> 5 0.31    335
#> 6 0.24    336
#> # … with 53,934 more rows
```

Now use the new data frame `d2` to calculate the price per carat for each diamond. You can call the new variable anything you want. In this example, it is named `ppc` ("price per carat"):


```r
mutate(d2, ppc = price / carat)
```

```
#> # A tibble: 53,940 x 3
#>   carat price   ppc
#>   <dbl> <int> <dbl>
#> 1 0.23    326 1417.
#> 2 0.21    326 1552.
#> 3 0.23    327 1422.
#> 4 0.290   334 1152.
#> 5 0.31    335 1081.
#> 6 0.24    336 1400 
#> # … with 53,934 more rows
```

### `mutate()` an existing variable

You do not have to create an entirely new variable when using `mutate()`. For example, let's say you wanted to convert the price from US Dollars (USD) to Canadian Dollars (CAD). The current exchange rate is about 1 USD to 1.27 CAD. You can change the existing price variable by setting the new variable name to be the same as the old variable name:


```r
mutate(diamonds, price = price * 1.27)
```

```
#> # A tibble: 53,940 x 10
#>   carat cut       color clarity depth table price     x     y     z
#>   <dbl> <ord>     <ord> <ord>   <dbl> <dbl> <dbl> <dbl> <dbl> <dbl>
#> 1 0.23  Ideal     E     SI2      61.5    55  414.  3.95  3.98  2.43
#> 2 0.21  Premium   E     SI1      59.8    61  414.  3.89  3.84  2.31
#> 3 0.23  Good      E     VS1      56.9    65  415.  4.05  4.07  2.31
#> 4 0.290 Premium   I     VS2      62.4    58  424.  4.2   4.23  2.63
#> 5 0.31  Good      J     SI2      63.3    58  425.  4.34  4.35  2.75
#> 6 0.24  Very Good J     VVS2     62.8    57  427.  3.94  3.96  2.48
#> # … with 53,934 more rows
```
…
