Lab 5: The normal distribution
…
Those numbers are fairly close to the population parameters we used to generate the data (mean = 7.5, sd = 2.82).

But does the sample have a normal distribution? Let’s graph it to make sure. Remember that an effective way to visualize a single variable is with a histogram.

As always, we will use ggplot() for graphing, which means we need to load the tidverse package. It also means we need to put x in a data frame, because the data argument to ggplot() must always be a data frame (not a vector). Note the use of geom_vline() to add a vertical line for the mean value.

# load the tidyverse package for ggplot2, tibble, and dplyr
library(tidyverse)

# create a data frame (tibble) to use for plotting
df <- tibble(x)
df

# A tibble: 1,000 x 1
       x
   <dbl>
 1  4.72
 2  6.39
 3 11.2 
 4 10.2 
 5  1.48
 6 10.5 
 7  3.81
 8  9.04
 9  4.64
10  9.70
# ... with 990 more rows
…
A note on terminology:

Converting a variable to Z-scores is often called “standardizing”, but it is also sometimes refered to as “scaling”. This can be confusing because “scaling” can thus refer in the loose sense to the act of standardizing, or in the strict sense to dividing by the standard deviation.

On a related note, there is actually a handy function in R that both centers and scales (in the strict sense) called. Confusingly the function is called scale().

Now you know how to standardize a variable stored as a vector. But what if you want to standardize a variable in a data frame? With dplyr it’s super easy!

# start with data frame and then
# create a new variable for z-scores
mutate(df, z = (x - mean(x)) / sd(x))

# A tibble: 1,000 x 2
       x      z
   <dbl>  <dbl>
 1  4.72 -0.931
 2  6.39 -0.351
 3 11.2   1.32 
 4 10.2   0.974
 5  1.48 -2.06 
 6 10.5   1.09 
 7  3.81 -1.25 
 8  9.04  0.574
 9  4.64 -0.957
10  9.70  0.803
# ... with 990 more rows

Assignment

For the assignmet we will use the heights data set in the dslabs package.

The data set contains the height and sex of 1,050 students.

First, install dslabs using the Packages tab in RStudio. Then load the heights data set and turn it into a tibble so it prints nicely.

library(dslabs)
data("heights")
h <- as_tibble(heights)
h

# A tibble: 1,050 x 2
   sex    height
   <fct>   <dbl>
 1 Male       75
 2 Male       70
 3 Male       68
 4 Male       74
 5 Male       61
 6 Female     65
 7 Female     66
 8 Female     62
 9 Female     66
10 Male       67
# ... with 1,040 more rows
…
